{
  "2016/03/26":11.591,
  "2016/03/27":11.591,
  "2016/03/28":11.591,
  "2016/03/29":11.591,
  "2016/03/30":11.591,
  "2016/03/31":11.591,
  "2016/04/01":11.591,
  "2016/04/02":11.591,
  "2016/04/03":11.591,
  "2016/04/04":11.591,
  "2016/04/05":11.591,
  "2016/04/06":11.591,
  "2016/04/07":11.591,
  "2016/04/08":11.591,
  "2016/04/09":11.591,
  "2016/04/10":11.591,
  "2016/04/11":11.591,
  "2016/04/12":11.591,
  "2016/04/13":11.591,
  "2016/04/14":11.591,
  "2016/04/15":11.591,
  "2016/04/16":11.591,
  "2016/04/17":11.591,
  "2016/04/18":11.591,
  "2016/04/19":11.591,
  "2016/04/20":11.591,
  "2016/04/21":11.591
}
